Y   , X_1 , X_2 , X_3 , X_4
11.2, 56.5, 71.0, 38.5, 43.0
14.5, 59.5, 72.5, 38.2, 44.8
17.2, 69.2, 76.0, 42.5, 49.0
17.8, 74.5, 79.5, 43.4, 56.3
19.3, 81.2, 84.0, 47.5, 60.2
24.5, 83.0, 86.2, 47.4, 62.0
21.2, 78.2, 80.5, 44.5, 58.1
16.9, 89.0, 72.0, 41.8, 42.1
14.8, 58.1, 68.0, 42.1, 46.0
20.0, 80.5, 85.0, 48.1, 60.3